{
    "namespace": "edu.jhu.cannotate.avro",
    "type": "record",
    "name": "AvroFileMetadata",
    "fields": [
        {
            "name": "filename",
            "type": "string"
        },
        {
            "name": "fileSizeInBytes",
            "type": "long"
        },
        {
            "name": "fullyQualifiedPathToFile",
            "type": "string"
        },
        {
            "name": "uploadMachineName",
            "type": "string"
        },
        {
            "name": "lastModifiedTimestamp",
            "type": "string"
        }
    ]
}

