{
    "namespace": "edu.jhu.cannotate.avro",
    "type": "record",
    "name": "AvroGeneMetadata",
    "fields": [
        {
            "name": "filename",
            "type": "string"
        },
        {
            "name": "largestRegion",
            "type": "long"
        }
    ]
}

